<?xml version="1.0" encoding="UTF-8" standalone="no"?>
<svg
   xmlns:dc="http://purl.org/dc/elements/1.1/"
   xmlns:cc="http://creativecommons.org/ns#"
   xmlns:rdf="http://www.w3.org/1999/02/22-rdf-syntax-ns#"
   xmlns:svg="http://www.w3.org/2000/svg"
   xmlns="http://www.w3.org/2000/svg"
   xmlns:sodipodi="http://sodipodi.sourceforge.net/DTD/sodipodi-0.dtd"
   xmlns:inkscape="http://www.inkscape.org/namespaces/inkscape"
   width="156.50195"
   height="58.5"
   viewBox="0 0 156.50195 58.499999"
   version="1.1"
   id="svg98"
   sodipodi:docname="menu_widget.svg"
   inkscape:version="1.0.2 (e86c870879, 2021-01-15)">
  <metadata
     id="metadata102">
    <rdf:RDF>
      <cc:Work
         rdf:about="">
        <dc:format>image/svg+xml</dc:format>
        <dc:type
           rdf:resource="http://purl.org/dc/dcmitype/StillImage" />
        <dc:title></dc:title>
      </cc:Work>
    </rdf:RDF>
  </metadata>
  <sodipodi:namedview
     pagecolor="#ffffff"
     bordercolor="#666666"
     borderopacity="1"
     objecttolerance="10"
     gridtolerance="10"
     guidetolerance="10"
     inkscape:pageopacity="0"
     inkscape:pageshadow="2"
     inkscape:window-width="1836"
     inkscape:window-height="1016"
     id="namedview100"
     showgrid="false"
     fit-margin-top="0"
     fit-margin-left="0"
     fit-margin-right="0"
     fit-margin-bottom="0"
     inkscape:zoom="3.0616215"
     inkscape:cx="-46.032711"
     inkscape:cy="73.7025"
     inkscape:window-x="2004"
     inkscape:window-y="27"
     inkscape:window-maximized="1"
     inkscape:current-layer="svg98" />
  <defs
     id="defs4">
    <style
       id="style2">.a{fill:#00b2d3;}.b{fill:#ad3a6d;}.c,.f{fill:#fff;}.d{fill:#004053;opacity:0.3;mix-blend-mode:multiply;isolation:isolate;}.e{fill:#9ab74b;}.f{font-size:13px;font-family:HandmadeBuglerSolidW00-Rg;}</style>
    <clipPath
       clipPathUnits="userSpaceOnUse"
       id="clipPath1103">
      <rect
         style="fill:#9ab74b;fill-opacity:0.466667"
         id="rect1105"
         width="158.52443"
         height="70.846596"
         x="284.57904"
         y="22.025976" />
    </clipPath>
  </defs>
  <g
     transform="translate(-284.57904,-23.817)"
     id="g96"
     clip-path="url(#clipPath1103)">
    <g
       transform="translate(-402.125,9)"
       id="g8">
      <path
         class="a"
         d="m 14534.687,9960.443 -6.3,-3.58 -6.234,-3.576 -4.758,-4.348 -3.689,-7.336 0.929,-7.223 v -0.537 l -1,-2.026 -0.633,-8.081 1.957,-3.467 -1.258,-2.5 0.72,-5.588 -0.771,-4.016 0.04,-0.084 -0.05,-0.1 -0.633,-8.081 2.246,-3.976 -0.274,-4.71 -0.02,-0.125 -1.248,-2.482 0.309,-2.4 -0.36,-1.874 0.886,-2.213 0.09,-0.734 v -0.534 l -1,-2.025 -0.633,-8.082 1.957,-3.467 -1.258,-2.5 0.72,-5.587 -0.771,-4.012 0.04,-0.084 -0.05,-0.1 -0.633,-8.082 2.246,-3.975 -0.274,-4.71 -1.324,-6.886 2.611,-6.528 2.1,-6.779 5.079,-5.211 6.747,-2.922 6.882,-2.081 7.267,-0.808 8.6,2.421 5.738,1.605 4.644,4.775 4.813,6.425 2.326,6.835 v 0.208 l -0.365,6.915 -0.937,2.4 1.272,5.96 0.586,7.826 -0.5,1.949 0.469,3.222 -0.05,0.2 -1.48,6.077 0.976,4.561 0.586,7.825 -0.5,1.953 0.469,3.218 -0.05,0.205 -0.562,2.308 -0.279,5.291 -0.937,2.4 1.272,5.961 0.586,7.825 -0.5,1.949 0.469,3.222 -0.05,0.205 -1.48,6.074 0.976,4.563 0.586,7.825 -0.5,1.949 0.469,3.222 -0.05,0.2 -1.642,6.751 -3.689,5.953 -4.066,5.592 -4.4,5.207 -7.5,3.218 -7.588,0.289 z"
         transform="rotate(90,12574.2,-1923.9815)"
         id="path6" />
    </g>
    <g
       transform="translate(-352.125,-24.103)"
       id="g78">
      <g
         transform="translate(382,55.589)"
         id="g12">
        <path
           class="b"
           d="M -309.474,13.316 -297,9.6 l 12.66,-2.872 12.405,-1.62 1.675,9.719 1.618,9.4 -3.047,16.628 -4.211,10.636 -5.773,9.966 -4.83,10.429 -4.834,10.436 -5.837,10.578 11.755,-2.815 11.37,-1.829 11.229,-1.477 7.849,3.257 2,13.129 0.439,9.876 -12.464,2.533 -10.4,2.353 -10.336,2.69 -10.626,1.206 -10.291,2.935 -10.723,0.723 -10.228,1.839 -4.322,-10.184 -2.558,-14.852 6.622,-10.851 3.567,-10.665 5.11,-9.926 5.3,-9.83 5.2,-10.241 4.51,-10.4 -12.244,2.529 -12.479,2.035 -8.7,0.741 -8.663,2.271 -1.668,-14.883 -1.889,-12.144 6.7,-2.2 11.3,-1.315 11.025,-2.751 z"
           transform="translate(349.818,-5.107)"
           id="path10" />
      </g>
      <path
         class="c"
         d="m -285.724,5.027 h 1.18 l 0.033,-0.03 0.157,0.06 0.06,-0.03 1,0.06 0.093,-0.062 0.157,0.062 4.077,0.428 2.367,1.026 2.587,3.016 0.66,2.929 -0.9,3.617 -2.266,2.25 h -0.033 l -2.207,0.9 -0.093,-0.03 -0.063,0.062 -1.024,0.066 -0.281,0.093 -0.4,-0.062 -0.872,0.16 0.006,2.459 -0.033,0.093 0.009,3.461 -0.063,0.124 0.031,0.343 -0.124,0.278 -0.063,-0.06 -2.272,0.036 -0.246,-0.063 -1.649,0.006 -0.22,0.062 h -0.619 l -0.283,-0.126 -0.034,-1.5 0.03,-0.03 -0.085,-9.625 -0.03,-0.092 -0.034,-0.5 0.064,-0.22 -0.094,-0.153 0.063,-0.062 -0.034,-0.127 0.063,-0.093 -0.014,-8.382 0.063,-0.063 -0.064,-0.185 0.809,-0.129 0.063,-0.03 0.123,0.063 z m 4.864,5.723 -0.591,0.063 -0.023,3.617 0.281,0.093 h 0.807 l 1.276,-0.472 0.464,-1.215 -0.129,-0.718 -0.466,-0.774 -0.313,-0.219 -1.307,-0.373"
         transform="translate(758.658,50.421)"
         id="path14" />
      <path
         class="c"
         d="m -269.4,8.562 1.37,0.278 0.126,-0.031 1.8,0.65 0.156,-0.123 V 9.023 l 0.123,-0.438 4.543,0.056 0.1,-0.034 0.651,0.033 0.28,0.155 0.037,2.9 0.063,0.094 -0.049,7.289 0.033,0.094 -0.031,0.029 0.03,0.033 0.038,3.426 -0.031,0.127 v 1.026 l 0.061,0.062 -0.027,0.066 0.027,0.03 -0.03,0.093 0.031,0.031 -0.091,0.529 0.09,0.219 -0.4,0.123 -0.964,0.033 -0.1,-0.03 -0.09,0.031 -4.08,-0.116 -0.123,-0.217 0.06,-0.687 -0.063,-0.093 h -0.061 l -0.187,0.126 h -0.031 l -1.431,0.721 -1.957,0.313 -0.313,-0.03 -0.091,0.031 -0.9,-0.029 -0.126,-0.062 -0.217,0.027 -0.933,-0.276 -2.934,-2.175 -0.807,-1.059 -1.1,-3.552 0.641,-4.455 h -0.026 v -0.03 l 1.767,-2.843 1.4,-1.152 1.494,-0.66 1.273,-0.22 0.343,0.03 0.37,-0.064 0.219,0.064 0.063,-0.031 m 1.066,5.514 -1.551,0.283 -1.3,1.84 0.031,0.126 -0.064,0.343 -0.03,0.027 0.064,0.066 -0.031,0.219 0.031,0.185 1.156,1.775 1.059,0.309 1.521,-0.16 v -0.123 l 0.1,0.03 1.4,-0.472 -0.069,-3.3 0.03,-0.092 -0.03,-0.126 0.029,-0.06 v -0.066 l -0.437,-0.309 -1.9,-0.495"
         transform="translate(763.056,51.956)"
         id="path16" />
      <path
         class="c"
         d="m -260.022,9.675 2.177,0.057 0.126,16.235 -0.063,0.156 0.063,0.092 -0.156,0.157 -4.852,0.04 -0.593,-0.185 -0.061,-16.142 -0.031,-0.093 0.246,-0.312 3.144,-0.006 m 0.953,-5.3 0.564,0.5 0.59,1.525 -0.15,0.748 -0.717,1.092 -1.427,0.627 h -0.22 l -1.68,-0.433 -0.873,-0.963 V 7.436 l -0.251,-1.06 0.184,-0.717 0.9,-1.153 h 0.033 l 1.557,-0.436 1.491,0.3 z"
         transform="translate(768.855,50.034)"
         id="path18" />
      <path
         class="c"
         d="m -241.563,21.628 0.127,-1.991 -0.031,-0.093 0.031,-0.189 -0.033,-0.093 -0.01,-5.794 0.031,-0.033 V 11.88 l 0.06,0.027 V 11.88 l -0.091,-0.127 0.026,-2.681 -0.341,-0.4 -5.263,-0.023 -0.153,0.315 0.03,0.4 -0.216,0.156 -3.8,-0.9 -1.682,0.222 -1.8,0.844 -1.3,1.252 -1.584,2.558 0.031,0.03 -0.619,2.681 0.66,3.27 0.19,0.312 v 0.031 l 2.587,3.331 1.932,0.866 0.09,-0.031 3.114,0.12 0.311,-0.159 h 0.091 l 1.463,-0.5 0.546,-0.366 0.079,3.052 -0.066,0.062 -0.339,1.062 -0.373,0.436 -1.679,0.66 h -0.093 l -0.093,0.064 -0.061,-0.062 -0.873,0.031 -3.553,-1.8 -2.512,3.4 -0.217,0.531 4.049,1.987 1.213,0.213 0.094,0.064 h 0.156 l 0.094,0.06 5.383,-0.7 3.449,-2.811 0.893,-2.494 h 0.034 l 0.019,-5.215 z m -5.665,-3.664 -2.362,0.722 -1.279,-0.156 -1.213,-0.931 -0.314,-1.248 0.06,-0.621 0.62,-0.966 1.494,-0.565 h 1.183 l 1.773,0.619 0.069,3.023 -0.031,0.124 z"
         transform="translate(771.108,51.997)"
         id="path20" />
      <path
         class="c"
         d="m -227.76,18.235 0.155,0.127 -0.062,0.153 v 1.215 l -0.033,0.092 v 0.1 h 0.032 l -0.119,2.93 h -0.032 l 0.094,0.03 -0.125,1.744 0.1,0.313 -0.063,0.063 -0.187,-0.064 -2.522,0.006 -0.246,0.064 -2.676,0.006 -0.125,-0.157 0.062,-0.281 -0.034,-0.094 v -3.49 l -0.033,-0.123 0.116,-4.953 -0.69,-1.777 -1.492,-0.246 -1.306,0.315 -0.963,0.624 -0.682,0.936 -0.034,0.342 0.034,0.093 -0.115,4.707 0.028,0.093 -0.025,1.869 -0.033,0.094 0.033,0.219 -0.065,0.123 0.065,0.188 -0.034,0.281 0.034,0.156 -0.031,1.056 -0.094,0.221 -0.093,-0.187 -5.508,0.011 -0.058,0.03 -0.063,-0.093 0.03,-0.094 -0.032,-0.218 0.093,-0.156 -0.065,-0.249 -0.005,-2.93 -0.064,-0.061 0.062,-0.157 -0.073,-6.7 0.031,-0.092 -0.064,-0.219 0.031,-0.063 0.028,-2.742 0.027,-0.1 v -0.965 l -0.03,-0.061 0.092,-2.086 h 0.061 l 0.124,-0.1 h 0.123 l 0.094,-0.03 0.218,0.062 0.341,-0.033 0.189,0.032 0.123,-0.033 4.2,0.024 0.093,0.03 0.029,-0.03 0.127,0.53 -0.059,0.9 0.061,0.219 h 0.034 l 0.9,-0.468 0.092,0.031 0.342,-0.22 4.074,-0.756 2.555,0.773 1.961,1.929 v 0.061 l 0.126,0.156 v 0.032 l 0.342,0.716 -0.033,0.031 0.158,0.25 0.45,6.042"
         transform="translate(776.903,51.708)"
         id="path22" />
      <path
         class="c"
         d="m -225.344,4.972 2.955,-0.1 0.126,0.249 -0.029,0.062 0.029,0.872 h -0.031 l 0.073,4.018 0.372,0.063 0.248,-0.093 3.268,0.086 -0.018,5.484 -0.376,0.187 -3.516,-0.056 -0.056,2.4 h -0.032 l -0.032,0.032 0.095,0.28 -0.029,0.249 -0.033,-0.029 -0.031,0.029 0.161,1.933 1.244,1.118 0.1,-0.062 0.464,0.093 0.623,-0.067 0.745,-0.467 0.1,-0.032 2.026,3.581 v 0.029 l 0.123,0.126 -1.338,1.031 -2.579,0.754 -0.033,0.03 -0.06,-0.03 -1.775,0.033 -0.094,0.033 -0.684,-0.091 -0.06,0.031 -0.156,-0.093 -0.036,0.031 -0.309,-0.123 -0.031,0.032 -0.092,-0.065 h -0.032 l -0.465,-0.122 -0.189,-0.125 h -0.032 l -1.122,-0.682 -0.934,-1.12 -0.655,-1.5 -0.32,-2.958 0.033,-0.093 -0.07,-4.142 -4.046,-0.087 v -0.064 l 0.065,-0.091 -0.031,-0.126 0.02,-4.986 0.125,-0.248 3.794,-0.07 -0.072,-4.862 0.095,-0.343 0.061,-0.064 0.187,0.125 2.271,-0.005"
         transform="translate(782.38,50.372)"
         id="path24" />
      <path
         class="c"
         d="m -210.376,8.6 1.279,0.342 3.117,2.329 0.937,1.341 0.937,3.266 -0.243,3.557 0.061,0.093 -0.183,0.279 v 0.063 l -0.342,0.748 -2.576,2.934 -2.957,1.376 -0.154,-0.059 -4.479,0.007 -0.127,0.06 -2.364,-0.991 -2.339,-1.928 -1.283,-2.333 -0.061,-0.063 -0.037,-4.953 0.06,-0.187 V 14.42 l 1.21,-2.558 0.9,-1.062 3.2,-2 0.967,-0.283 0.121,0.034 0.529,-0.127 0.25,0.033 0.124,-0.034 3.454,0.18 m -2.195,5.397 -0.283,0.033 -0.091,-0.031 -1.276,0.439 -1.3,1.811 -0.033,0.31 0.469,1.4 0.467,0.528 2.059,0.807 2.2,-1.408 0.433,-1.309 -0.72,-1.774 -1.4,-0.714 -0.093,0.031 -0.247,-0.03 L -212.57,14"
         transform="translate(786.953,51.909)"
         id="path26" />
      <path
         class="c"
         d="m -190.976,18.163 0.158,0.128 -0.063,0.154 v 1.215 l -0.033,0.092 v 0.094 h 0.035 l -0.122,2.93 h -0.032 l 0.093,0.03 -0.118,1.745 0.092,0.312 -0.063,0.063 -0.185,-0.063 -5.447,0.073 -0.124,-0.155 0.063,-0.282 -0.034,-0.093 v -3.49 l -0.033,-0.125 0.113,-4.954 -0.684,-1.775 -1.5,-0.247 -0.063,0.031 h -0.1 l -1.146,0.285 -0.963,0.624 -0.686,0.937 -0.03,0.343 0.028,0.093 -0.112,4.706 0.031,0.093 -0.028,1.871 -0.03,0.093 0.029,0.217 -0.062,0.124 0.062,0.187 -0.028,1.494 -0.091,0.22 -0.093,-0.186 -5.511,0.011 -0.062,0.031 -0.059,-0.093 0.031,-0.093 -0.032,-0.219 0.091,-0.156 -0.068,-3.18 -0.061,-0.06 0.061,-0.157 -0.076,-6.7 0.033,-0.09 -0.064,-0.221 0.032,-0.06 0.028,-2.742 0.028,-0.1 v -0.967 l -0.032,-0.061 0.092,-2.087 h 0.061 l 0.123,-0.1 h 0.122 l 0.1,-0.029 0.219,0.061 4.853,-0.009 0.093,0.03 0.033,-0.031 0.122,0.531 -0.057,0.9 0.061,0.219 h 0.031 l 0.9,-0.469 0.094,0.03 0.341,-0.219 4.075,-0.756 2.553,0.774 1.964,1.929 v 0.062 l 0.127,0.154 v 0.033 l 0.34,0.716 -0.029,0.03 0.156,0.25 0.447,6.041"
         transform="translate(792.67,51.678)"
         id="path28" />
      <path
         class="d"
         d="m -274.041,88.6 -3.559,-19.651 -7.46,-6.59 -9.426,1.24 -7.538,1.213 -0.131,7.489 3.605,7.142 3.4,7.8 6.168,4.478 3.551,-0.8 z"
         transform="translate(752.251,75.137)"
         id="path30" />
      <path
         class="e"
         d="m -262.353,106.639 -9.13,-2.126 -8.1,-4.787 -7.567,-5.256 -7.442,-6.308 -3.947,-9.014 -0.411,-9.783 1.573,-9.471 4.843,-8.133 4.847,-8.037 6.9,-6.807 8.936,-4.074 9.773,1.2 9.462,-0.043 8.113,4.877 8.583,4.293 5.836,7.7 2.424,9.262 1.263,9.236 -0.52,9.435 -4.917,8.049 -3.6,9.2 -8.226,5.263 -8.786,4.056 -9.633,1.332 z m 0.674,-26.173 a 15.522,15.522 0 0 0 6.666,-2.223 4.471,4.471 0 0 0 2.487,-2.843 c 0.459,-1.173 1.132,-2.093 1.686,-3.215 0.934,-1.893 0.543,-4.574 0.133,-6.612 -0.479,-2.381 -1.352,-4.737 -3.629,-5.877 -1.1,-0.551 -2.15,-1.117 -3.206,-1.751 -1.307,-0.787 -2.043,-0.618 -3.586,-0.662 -2.574,-0.073 -4.27,-0.682 -6.572,0.97 -2.012,1.446 -3.13,3.737 -4.363,5.807 a 10.77,10.77 0 0 0 -1.266,7.195 c 0.805,5.045 7.197,8.184 11.65,9.211 z"
         transform="translate(753.623,62.426)"
         id="path32" />
      <path
         class="d"
         d="m -244.538,74.206 0.5,-9 -1.205,-8.811 -2.312,-8.834 -1.67,-2.2 -7.356,12.278 -2.184,14.334 1.723,15.853 2.075,4.316 2.311,-1.479 3.433,-8.776 z"
         transform="translate(770.844,67.815)"
         id="path34" />
      <g
         transform="translate(517.95,83.387)"
         id="g46">
        <path
           class="a"
           d="m -175.263,60.806 c -7.229,11.477 -13.363,13.033 -19.218,17.126 -11.108,7.768 -23.274,24.368 -23.274,24.368 a 117.076,117.076 0 0 1 6.109,-16.316 c -1.8,-0.039 -2.713,0.126 -4.286,-0.82 -1.311,-0.79 -2.616,-1.494 -3.986,-2.177 -2.833,-1.418 -3.917,-4.349 -4.513,-7.308 -0.51,-2.537 -1,-5.868 0.166,-8.222 0.689,-1.395 1.526,-2.539 2.1,-4 0.8,-2.046 1.2,-2.349 3.094,-3.532 a 19.265,19.265 0 0 1 8.286,-2.764 28.288,28.288 0 0 1 5.733,2.019 c 4.359,-5.461 12.621,-14.432 24.021,-20.761 l -5.762,-4 a 56.026,56.026 0 0 0 -5.745,4.5 C -199.772,45.268 -207,54.8 -207,54.8 a 69.554,69.554 0 0 1 15.221,-23.514 l -6.819,-4.032 -11.352,-2.642 -0.341,-0.077 -11.978,1.655 -10.923,5.044 -10.229,6.545 -4.479,11.442 -6.113,10.007 -0.647,11.731 1.571,11.485 3.014,11.515 7.256,9.569 10.672,5.338 10.088,6.064 1.54,-0.007 c 3.747,-6.439 12.606,-20.16 25.153,-30.1 0,0 -12.583,15.006 -19.108,30.078 l 4.18,-0.019 1.114,0.137 c 5.477,-15.083 14.254,-22.833 21.4,-31.61 7.756,-9.537 12.517,-22.603 12.517,-22.603 z"
           transform="translate(254.657,-24.538)"
           id="path36" />
        <path
           class="a"
           d="m -217.92,55.807 a 17.191,17.191 0 0 1 3.282,2.75 c 1.1,-0.986 2.142,-1.983 3,-2.92 3.879,-4.238 7.58,-7.239 10.755,-8.476 a 62.249,62.249 0 0 0 -6,7.24 c -1.574,2.226 -3.59,4.84 -5.709,7.361 a 8.55,8.55 0 0 1 0.536,1.857 c 0.057,0.356 0.1,0.714 0.129,1.072 4.5,-3.914 10.125,-10.033 15.978,-19.471 1.962,-3.165 3.453,-5.641 4.56,-7.515 l -1.854,-1.571 a 83.537,83.537 0 0 1 -13.457,10.674 50.519,50.519 0 0 0 -11.22,8.999 z"
           transform="translate(270.405,-19.544)"
           id="path38" />
        <path
           class="a"
           d="m -190.187,48.1 -2.217,-5.063 a 92.311,92.311 0 0 0 -6.186,16.511 46.582,46.582 0 0 1 8.403,-11.448 z"
           transform="translate(278.691,-16.571)"
           id="path40" />
        <path
           class="a"
           d="m -191.936,84.389 a 105.371,105.371 0 0 1 -15.516,10.416 c 0,0 9.169,-8.122 20.807,-27.191 a 99.812,99.812 0 0 1 8.01,-11.283 l -0.279,-6.605 a 57.254,57.254 0 0 0 -9.848,13.828 c -7.406,13.771 -11.813,16.773 -20.982,26.13 a 122.4,122.4 0 0 0 -12.186,14.64 l 9.763,1.2 0.324,-0.147 10.786,-4.917 8.576,-8.465 6.028,-9.995 3.844,-6.459 c -3.064,3.144 -6.24,6.21 -9.327,8.848 z"
           transform="translate(268.685,-13.691)"
           id="path42" />
        <path
           class="a"
           d="m -210.562,65.418 c 6.7,-4.238 15.341,-15.007 19.044,-19.421 a 25.157,25.157 0 0 1 3.407,-3.419 l -0.659,-1.5 -1.673,-1.419 c -3.812,4.249 -7.6,8.581 -10.6,12.518 -5.005,6.58 -9.519,13.241 -9.519,13.241 z"
           transform="translate(273.558,-18.026)"
           id="path44" />
      </g>
      <path
         class="c"
         d="m -320.768,100.528 -0.416,4.981 -2.61,0.24 -2.95,-8.838 2.732,-0.25 1.329,5.136 0.564,-5.311 1.934,-0.177 1.531,5.117 0.361,-5.29 2.733,-0.252 -1.283,9.228 -2.624,0.24 z"
         transform="translate(741.708,89.573)"
         id="path48" />
      <path
         class="c"
         d="m -318.315,95.9 2.556,-0.235 0.827,9.034 -2.557,0.235 z"
         transform="translate(745.321,89.479)"
         id="path50" />
      <path
         class="c"
         d="m -315.43,95.636 2.556,-0.236 0.623,6.8 2.787,-0.255 0.2,2.233 -5.343,0.491 z"
         transform="translate(746.558,89.365)"
         id="path52" />
      <path
         class="c"
         d="m -310.832,95.244 3.409,-0.313 c 2.65,-0.243 4.383,1.415 4.632,4.123 0.249,2.708 -1.141,4.667 -3.792,4.91 l -3.422,0.313 z m 4.03,6.488 c 1,-0.093 1.544,-1 1.414,-2.439 -0.141,-1.531 -0.777,-2.225 -1.832,-2.127 l -0.853,0.079 0.419,4.567 z"
         transform="translate(748.528,89.153)"
         id="path54" />
      <path
         class="c"
         d="m -302.554,94.5 3.909,-0.359 a 2.91,2.91 0 0 1 3.376,2.777 2.889,2.889 0 0 1 -2.82,3.306 l -1.351,0.124 0.27,2.951 -2.557,0.233 z m 3.8,1.85 -1.04,0.1 0.157,1.721 1.04,-0.1 a 0.792,0.792 0 0 0 0.733,-0.94 0.79,0.79 0 0 0 -0.894,-0.784 z"
         transform="translate(752.077,88.814)"
         id="path56" />
      <path
         class="c"
         d="m -296.888,93.936 2.556,-0.235 0.623,6.8 2.786,-0.256 0.2,2.235 -5.342,0.491 z"
         transform="translate(754.505,88.633)"
         id="path58" />
      <path
         class="c"
         d="m -286.9,100.965 -2.584,0.237 -0.159,1.243 -2.637,0.242 1.824,-9.278 3.1,-0.283 3.477,8.791 -2.637,0.242 z m -2.3,-1.989 1.61,-0.147 -1.11,-3.329 z"
         transform="translate(756.48,88.386)"
         id="path60" />
      <path
         class="c"
         d="m -283.522,97.269 0.426,4.645 -2.53,0.232 -0.827,-9.034 2.6,-0.237 2.66,4.166 -0.4,-4.373 2.516,-0.23 0.827,9.033 -2.422,0.222 z"
         transform="translate(758.978,88.089)"
         id="path62" />
      <path
         class="c"
         d="m -280.2,92.492 5.695,-0.522 0.2,2.179 -3.137,0.288 0.109,1.193 3.043,-0.279 0.2,2.18 -3.043,0.279 0.119,1.3 3.139,-0.288 0.2,2.18 -5.693,0.524 z"
         transform="translate(761.658,87.888)"
         id="path64" />
      <path
         class="c"
         d="m -273.484,94.146 -1.867,0.172 -0.2,-2.235 6.289,-0.577 0.2,2.233 -1.852,0.17 0.621,6.8 -2.569,0.235 z"
         transform="translate(763.649,87.688)"
         id="path66" />
      <path
         class="c"
         d="m -266.428,93.5 -1.866,0.172 -0.2,-2.235 6.289,-0.577 0.2,2.235 -1.853,0.169 0.623,6.8 -2.57,0.236 z"
         transform="translate(766.674,87.41)"
         id="path68" />
      <path
         class="c"
         d="m -259.523,96.687 -0.649,0.06 0.27,2.951 -2.556,0.235 -0.827,-9.034 3.976,-0.365 a 2.912,2.912 0 0 1 3.3,2.73 2.849,2.849 0 0 1 -1.113,2.751 l 1.706,3.272 -2.827,0.259 z m 0.007,-3.936 -1.013,0.093 0.157,1.721 1.013,-0.093 a 0.82,0.82 0 0 0 0.76,-0.943 0.811,0.811 0 0 0 -0.917,-0.778 z"
         transform="translate(768.909,87.262)"
         id="path70" />
      <path
         class="c"
         d="m -257.477,90.456 2.583,-0.236 0.526,5.743 c 0.069,0.745 0.449,1.173 1.22,1.1 0.743,-0.069 1.053,-0.561 0.984,-1.3 l -0.526,-5.744 2.584,-0.238 0.523,5.717 c 0.2,2.193 -1.1,3.609 -3.36,3.815 -2.26,0.206 -3.81,-0.947 -4.009,-3.126 z"
         transform="translate(771.399,86.944)"
         id="path72" />
      <path
         class="c"
         d="m -250.049,95.8 a 3.134,3.134 0 0 0 2.3,0.744 c 0.487,-0.044 0.831,-0.295 0.8,-0.632 -0.036,-0.393 -0.461,-0.572 -1.2,-0.738 -1.2,-0.272 -2.946,-0.589 -3.132,-2.607 -0.136,-1.476 0.874,-2.976 3.092,-3.18 a 4.729,4.729 0 0 1 3.166,0.761 l -0.989,2 a 3.1,3.1 0 0 0 -1.976,-0.555 c -0.567,0.053 -0.72,0.312 -0.694,0.582 0.033,0.379 0.443,0.534 1.223,0.708 1.2,0.272 2.9,0.662 3.069,2.544 0.17,1.843 -1.022,3.126 -3.119,3.319 a 4.781,4.781 0 0 1 -3.559,-0.89 z"
         transform="translate(774.052,86.766)"
         id="path74" />
      <path
         class="c"
         d="m -244.366,91.477 -1.867,0.17 -0.2,-2.233 6.289,-0.577 0.2,2.233 -1.852,0.17 0.621,6.8 -2.57,0.236 z"
         transform="translate(776.13,86.539)"
         id="path76" />
    </g>
    <g
       transform="translate(20035.518,9748.169)"
       id="g94">
      <g
         transform="translate(-19741.643,-9615.148)"
         id="g86">
        <ellipse
           class="a"
           cx="2.4860001"
           cy="2.3789999"
           rx="2.4860001"
           ry="2.3789999"
           transform="translate(28.58,28.549)"
           id="ellipse80" />
        <path
           class="a"
           d="M 2.366,0 A 2.47,2.47 0 0 1 4.766,2.5 2.4,2.4 0 0 1 2.4,4.967 2.47,2.47 0 0 1 0,2.469 2.4,2.4 0 0 1 2.366,0 Z"
           transform="rotate(-81.934,25.491394,8.9541848)"
           id="path82" />
        <path
           class="a"
           d="m 239.5,292.72 a 1.262,1.262 0 0 0 -0.979,-0.458 h -29.17 l -1,-3.856 a 1.234,1.234 0 0 0 -1.206,-0.9 h -5.9 a 1.191,1.191 0 1 0 0,2.379 h 4.933 l 6.266,24.078 a 1.234,1.234 0 0 0 1.206,0.9 h 20.2 a 1.191,1.191 0 1 0 0,-2.379 h -19.231 l -0.929,-3.569 h 21.11 a 1.234,1.234 0 0 0 1.206,-0.9 l 3.729,-14.274 A 1.15,1.15 0 0 0 239.5,292.72 Z m -3.814,6.68 h -4.3 l 0.621,-4.758 h 4.924 z m -10.986,7.136 v -4.758 h 3.875 l -0.621,4.758 z m -5.739,0 -0.621,-4.758 h 3.875 v 4.758 z m -2.5,0 h -3.37 l -1.243,-4.758 h 3.992 z m 1.573,-7.137 -0.621,-4.758 h 4.807 v 4.759 z m 6.671,0 v -4.758 h 4.807 l -0.621,4.758 z m -9.8,-4.758 0.621,4.758 h -4.3 l -1.243,-4.758 z m 18.925,11.9 h -3.37 l 0.621,-4.758 h 3.991 z"
           transform="translate(-200,-287.504)"
           id="path84" />
      </g>
      <path
         class="b"
         d="M 9.131,0 6.668,0.332 4.2,1.481 2.309,2.681 1.443,4.411 0.133,7.01 0,9.377 0.322,11.7 l 0.62,2.329 1.491,1.936 2.2,1.08 2.079,1.226 2.424,-0.008 2.5,0.3 2.542,-1.2 1.506,-1.542 1.239,-2.02 1.239,-2.043 0.4,-2.383 -0.1,-2.46 L 17.345,4.488 15.545,3.061 13.6,1.743 11.54,0.547 9.2,0.015 Z"
         transform="rotate(90,-5032.577,-14655.839)"
         id="path88" />
      <text
         class="f"
         transform="translate(-19701.623,-9609.169)"
         id="text92"><tspan
           x="0"
           y="0"
           id="tspan90">2</tspan></text>
    </g>
  </g>
</svg>
