<svg xmlns:dc="http://purl.org/dc/elements/1.1/" xmlns:cc="http://creativecommons.org/ns#" xmlns:rdf="http://www.w3.org/1999/02/22-rdf-syntax-ns#" xmlns:svg="http://www.w3.org/2000/svg" xmlns="http://www.w3.org/2000/svg" xmlns:sodipodi="http://sodipodi.sourceforge.net/DTD/sodipodi-0.dtd" xmlns:inkscape="http://www.inkscape.org/namespaces/inkscape" width="11.747197mm" height="11.62367mm" viewBox="0 0 11.747197 11.62367" version="1.1" inkscape:version="1.0.2 (e86c870879, 2021-01-15)" sodipodi:docname="pagination.svg">
    <g transform="translate(-76.525228,-158.22984)">
        <path d="m 88.272425,163.94827 -0.209815,-1.54252 -0.727339,-1.54279 -0.756179,-1.18401 -1.098021,-0.5453 -1.64465,-0.82021 -1.4986,-0.0836 -1.468967,0.20135 -1.473993,0.38814 -1.225021,0.93345 -0.683154,1.37583 -0.776023,1.30175 0.0048,1.51792 -0.190235,1.56713 0.756443,1.59173 0.976048,0.94324 1.278732,0.77629 1.293283,0.77628 1.508125,0.25056 1.556808,-0.0638 1.537229,-0.69771 0.903023,-1.13003 0.834496,-1.21259 0.756444,-1.29302 0.336814,-1.46394 z" style="fill:#00b2d3;stroke-width:0.264583" />
    </g>
</svg>
