<?xml version="1.0" encoding="UTF-8" standalone="no"?>
<svg
   xmlns:dc="http://purl.org/dc/elements/1.1/"
   xmlns:cc="http://creativecommons.org/ns#"
   xmlns:rdf="http://www.w3.org/1999/02/22-rdf-syntax-ns#"
   xmlns:svg="http://www.w3.org/2000/svg"
   xmlns="http://www.w3.org/2000/svg"
   xmlns:sodipodi="http://sodipodi.sourceforge.net/DTD/sodipodi-0.dtd"
   xmlns:inkscape="http://www.inkscape.org/namespaces/inkscape"
   preserveAspectRatio="none"
   style="isolation:isolate"
   viewBox="0 0 1569 34"
   width="1569"
   height="34"
   version="1.1"
   id="svg11"
   sodipodi:docname="pink_horizontal_strip_top.svg"
   inkscape:version="1.0.2 (e86c870879, 2021-01-15)">
  <metadata
     id="metadata15">
    <rdf:RDF>
      <cc:Work
         rdf:about="">
        <dc:format>image/svg+xml</dc:format>
        <dc:type
           rdf:resource="http://purl.org/dc/dcmitype/StillImage" />
        <dc:title></dc:title>
      </cc:Work>
    </rdf:RDF>
  </metadata>
  <sodipodi:namedview
     pagecolor="#ffffff"
     bordercolor="#666666"
     borderopacity="1"
     objecttolerance="10"
     gridtolerance="10"
     guidetolerance="10"
     inkscape:pageopacity="0"
     inkscape:pageshadow="2"
     inkscape:window-width="1836"
     inkscape:window-height="1016"
     id="namedview13"
     showgrid="false"
     fit-margin-top="0"
     fit-margin-left="0"
     fit-margin-right="0"
     fit-margin-bottom="0"
     inkscape:zoom="1.2179142"
     inkscape:cx="838.42258"
     inkscape:cy="-5.1345105"
     inkscape:window-x="2004"
     inkscape:window-y="27"
     inkscape:window-maximized="1"
     inkscape:current-layer="svg11" />
  <defs
     id="defs5">
    <clipPath
       id="_clipPath_xYLC3N0HrwPloCl5X25XtIz2ybZ2bklC">
      <rect
         width="1569"
         height="351.5"
         id="rect2"
         x="0"
         y="0" />
    </clipPath>
    <clipPath
       clipPathUnits="userSpaceOnUse"
       id="clipPath842">
      <rect
         style="fill:#0000ff;fill-opacity:0.219809"
         id="rect844"
         width="1688.0739"
         height="75.960594"
         x="-1597.3"
         y="-46.290981"
         transform="scale(-1)" />
    </clipPath>
    <clipPath
       clipPathUnits="userSpaceOnUse"
       id="clipPath851">
      <rect
         style="fill:#0000ff;fill-opacity:0.219809;stroke-width:0.662126"
         id="rect853"
         width="1620.6355"
         height="34"
         x="-1589.4436"
         y="-34.090981"
         transform="scale(-1)" />
    </clipPath>
  </defs>
  <g
     clip-path="url(#clipPath851)"
     id="g9"
     transform="rotate(180,784.5,17.04549)"
     style="fill:#ad3a6d;fill-opacity:1">
    <path
       d="M 210.393,0 0,10.295 v 5.144 324.249 11.765 l 161.466,-6.62 104.381,5.15 192.46,-5.15 156.569,5.15 550.456,1.47 99.49,-11.765 304.178,5.145 V 5.145 L 1352.895,10.295 1268.898,8.09 1071.553,4.41 998.16,10.295 959.014,4.41 503.159,13.969 344.138,5.145 Z"
       fill="#004053"
       id="path7"
       style="fill:#ad3a6d;fill-opacity:1" />
  </g>
</svg>
